C:\Users\ecern\OneDrive - Ma Formation en Ligne\webWeatherApp\src\main\java\com\cernys\webWeatherApp\LoginServlet.java
C:\Users\ecern\OneDrive - Ma Formation en Ligne\webWeatherApp\src\main\java\com\cernys\webWeatherApp\RequestFactory.java
C:\Users\ecern\OneDrive - Ma Formation en Ligne\webWeatherApp\src\main\java\com\cernys\webWeatherApp\entities\User.java
C:\Users\ecern\OneDrive - Ma Formation en Ligne\webWeatherApp\src\main\java\com\cernys\webWeatherApp\IndexServlet.java
C:\Users\ecern\OneDrive - Ma Formation en Ligne\webWeatherApp\src\main\java\com\cernys\webWeatherApp\LogoutServlet.java
